…
Note that the `echo = FALSE` parameter was added to the code chunk to prevent printing of the R code that generated the plot.

``` r
names(txt00) = c('txt')
tidy_txt00 <- txt00 %>% mutate(cap='00') %>% 
  unnest_tokens(word, txt)

stop_words = as.data.frame(stopwords("spanish"))
names(stop_words) = c("word")
clean_txt00 = tidy_txt00 %>% 
  anti_join(stop_words)
clean_txt00 %>% count(word, sort = TRUE) 
```

    ## # A tibble: 2,669 x 2
    ##            word     n
    ##           <chr> <int>
    ##  1     gobierno    59
    ##  2     política    52
    ##  3       social    44
    ##  4     libertad    36
    ##  5 constitución    34
    ##  6     sociedad    33
    ##  7       españa    31
    ##  8      sistema    26
    ##  9      derecho    23
    ## 10          ley    22
    ## # ... with 2,659 more rows
…
