TextMining - Discursos Presidenciales tidy way
…
filenames <- list.files(".",pattern="*.txt")
discursos_raw = map(filenames,~readLines(.x,encoding="UTF-8")) %>% 
  map2(filenames, ~tibble(text=.x, docid=.y)) %>% 
  map_df(rbind)

# Replaces varios
discursos_raw = discursos_raw %>% 
  filter(text != "") %>% 
  mutate(text = gsub("SS.SS", "Sus_Seoras", text)
         ,text = gsub("SS. SS", "Sus_Seoras", text)
         )
discursos_raw 

## # A tibble: 1,978 x 2
##                                                                           text
##                                                                          <chr>
##  1                                                                          X0
##  2 Muchas gracias, seor Presidente. Con su venia. Seoras y seores Diputados
##  3 El cambio poltico realizado en nuestro pas ha sido profundo y sincero. Pe
##  4 Se trata, por  consiguiente, de saber realizar el cambio social con sinceri
##  5 El cambio poltico se verific en torno a un eje de sensatez consistente en
##  6 Con esta voluntad, me  permito invitar a Sus_Seoras. a avanzar en la defi
##  7 La cuestin, en la realidad, una vez ms, consiste en averiguar si, a uno y
##  8 En sntesis, ste es el cuadro y en este gran marco se inscribe la gran tar
##  9 Y tenemos voluntad, fortaleza y experiencia poltica para serlo. La oportun
## 10 Nos enfrentamos con una situacin nueva porque iniciamos una nueva legislat
## # ... with 1,968 more rows, and 1 more variables: docid <chr>
…
discursos = discursos %>% 
  filter(!word %in% stopwords("spanish")) %>% 
  filter(!word %in% add.stops)

discursos_tfidf = discursos %>% 
  bind_tf_idf(word, docid, n) %>% 
  arrange(desc(tf_idf))

discursos_tfidf %>% arrange(desc(n))

## # A tibble: 26,342 x 6
##     docid      word     n          tf        idf       tf_idf
##     <chr>     <chr> <int>       <dbl>      <dbl>        <dbl>
##  1 11.txt  gobierno    82 0.016935151 0.00000000 0.0000000000
##  2 03.txt  poltica    69 0.012858740 0.00000000 0.0000000000
##  3 11.txt    espaa    67 0.013837257 0.00000000 0.0000000000
##  4 08.txt  gobierno    65 0.016722408 0.00000000 0.0000000000
##  5 06.txt  gobierno    64 0.012398295 0.00000000 0.0000000000
##  6 11.txt  seoras    63 0.013011152 0.00000000 0.0000000000
##  7 11.txt espaoles    59 0.012185048 0.08004271 0.0009753242
##  8 00.txt  gobierno    59 0.009525347 0.00000000 0.0000000000
##  9 09.txt    espaa    56 0.011809363 0.00000000 0.0000000000
## 10 12.txt  gobierno    54 0.019128587 0.00000000 0.0000000000
## # ... with 26,332 more rows
…
discursos_bigram = discursos_bigram %>% 
  count(docid, bigram, sort = TRUE) %>%
  ungroup() %>% 
  bind_tf_idf(bigram, docid, n) %>% 
  arrange(desc(tf_idf))

discursos_bigram

## # A tibble: 19,620 x 6
##     docid                    bigram     n          tf      idf      tf_idf
##     <chr>                     <chr> <int>       <dbl>    <dbl>       <dbl>
##  1 03.txt      comunidad econmica    12 0.006475985 1.466337 0.009495977
##  2 07.txt              pleno empleo     6 0.003594967 2.564949 0.009220908
##  3 07.txt        seora presidenta    10 0.005991612 1.466337 0.008785722
##  4 05.txt              pacto social     5 0.003272251 2.564949 0.008393159
##  5 03.txt            nica europea     6 0.003237992 2.564949 0.008305287
##  6 07.txt equilibrio presupuestario     5 0.002995806 2.564949 0.007684090
##  7 04.txt               acta nica     7 0.005177515 1.466337 0.007591982
##  8 04.txt      condiciones internas     4 0.002958580 2.564949 0.007588608
##  9 04.txt         seguridad interna     4 0.002958580 2.564949 0.007588608
## 10 08.txt     constitucin europea     4 0.002814919 2.564949 0.007220125
## # ... with 19,610 more rows
…
