…
# Replaces varios
discursos_raw = discursos_raw %>% 
  filter(text != "") %>% 
  mutate(text = gsub("SS.SS", "Sus_Señorías", text)
         ,text = gsub("SS. SS", "Sus_Señorías", text)
         )
discursos_raw 
```

    ## # A tibble: 1,978 x 2
    ##                                                                           text
    ##                                                                          <chr>
    ##  1                                                                          X0
    ##  2 Muchas gracias, señor Presidente. Con su venia. Señoras y señores Diputados
    ##  3 El cambio político realizado en nuestro país ha sido profundo y sincero. Pe
    ##  4 Se trata, por  consiguiente, de saber realizar el cambio social con sinceri
    ##  5 El cambio político se verificó en torno a un eje de sensatez consistente en
    ##  6 Con esta voluntad, me  permito invitar a Sus_Señorías. a avanzar en la defi
    ##  7 La cuestión, en la realidad, una vez más, consiste en averiguar si, a uno y
    ##  8 En síntesis, éste es el cuadro y en este gran marco se inscribe la gran tar
    ##  9 Y tenemos voluntad, fortaleza y experiencia política para serlo. La oportun
    ## 10 Nos enfrentamos con una situación nueva porque iniciamos una nueva legislat
    ## # ... with 1,968 more rows, and 1 more variables: docid <chr>
…
discursos = discursos %>% 
  filter(!word %in% stop_words) 

discursos_tfidf = discursos %>% 
  count(docid, word, sort = TRUE) %>%
  ungroup() %>% 
  bind_tf_idf(word, docid, n) %>% 
  arrange(desc(tf_idf))

discursos_tfidf %>% arrange(desc(n))
```

    ## # A tibble: 26,342 x 6
    ##     docid      word     n          tf        idf       tf_idf
    ##     <chr>     <chr> <int>       <dbl>      <dbl>        <dbl>
    ##  1 11.txt  gobierno    82 0.016935151 0.00000000 0.0000000000
    ##  2 03.txt  política    69 0.012858740 0.00000000 0.0000000000
    ##  3 11.txt    españa    67 0.013837257 0.00000000 0.0000000000
    ##  4 08.txt  gobierno    65 0.016722408 0.00000000 0.0000000000
    ##  5 06.txt  gobierno    64 0.012398295 0.00000000 0.0000000000
    ##  6 11.txt  señorías    63 0.013011152 0.00000000 0.0000000000
    ##  7 11.txt españoles    59 0.012185048 0.08004271 0.0009753242
    ##  8 00.txt  gobierno    59 0.009525347 0.00000000 0.0000000000
    ##  9 09.txt    españa    56 0.011809363 0.00000000 0.0000000000
    ## 10 12.txt  gobierno    54 0.019128587 0.00000000 0.0000000000
    ## # ... with 26,332 more rows
…
discursos_bigram_tfidf = discursos_bigram %>% 
  count(docid, bigram, sort = TRUE) %>%
  ungroup() %>% 
  bind_tf_idf(bigram, docid, n) %>% 
  arrange(desc(tf_idf))

discursos_bigram
```

    ## # A tibble: 21,985 x 2
    ##     docid              bigram
    ##  *  <chr>               <chr>
    ##  1 00.txt           x0 muchas
    ##  2 00.txt      muchas gracias
    ##  3 00.txt      gracias seã±or
    ##  4 00.txt   seã±or presidente
    ##  5 00.txt      venia seã±oras
    ##  6 00.txt  seã±ores diputados
    ##  7 00.txt                 s m
    ##  8 00.txt      rey comparezco
    ##  9 00.txt           acto cuya
    ## 10 00.txt cuya significaciã³n
    ## # ... with 21,975 more rows
…
